{
    "8600164": {
        "work_company_title": "Специалист с эконометрики",
        "work_company_name": "RAZOM GROUP",
        "work_company_location": "Киев",
        "work_company_salary": "",
        "work_company_description": "RAZOM GROUP - комунікаційна компанія, яка поєднує комунікаційні медіа-агенції Initiative, Universal McCann, Havas Media Ukraine в пошуках члена команди...",
        "work_url": "https://rabota.ua/company538974/vacancy8600164"
    },
    "8658968": {
        "work_company_title": "Python Trainee",
        "work_company_name": "DataArt",
        "work_company_location": "Херсон",
        "work_company_salary": "",
        "work_company_description": "DataArt is inviting beginner Python developers to take part in its paid trainee program. The goal is to achieve the level of proficiency that will allow...",
        "work_url": "https://rabota.ua/company277662/vacancy8658968"
    },
    "8639451": {
        "work_company_title": "Data Scientist (Machine Learning Engineer) - junior",
        "work_company_name": "EVA - линия магазинов",
        "work_company_location": "Днепр",
        "work_company_salary": "",
        "work_company_description": "Направление Data Science IT департамент приглашает в команду опытного специалиста в машинном обучении на Python, способного находить оптимальные решения...",
        "work_url": "https://rabota.ua/company511842/vacancy8639451"
    },
    "8639152": {
        "work_company_title": "Викладач IT в школі",
        "work_company_name": "DL",
        "work_company_location": "Ровно",
        "work_company_salary": "10 000 грн",
        "work_company_description": "Викладач IT-курсів для дітей Які якості нам важливі? Уміння зацікавити, чітко викладати і доносити матеріал, утримувати увагу дітей, грамотна мова. Бажано...",
        "work_url": "https://rabota.ua/company10176017/vacancy8639152"
    },
    "8591584": {
        "work_company_title": "Программист Python Odoo/Django",
        "work_company_name": "1000GEEKS",
        "work_company_location": "Одесса",
        "work_company_salary": "",
        "work_company_description": "Приглашаем в нашу компанию программиста back-end Python Требования: - опыт работы с Python обязателен более 1-го года - знание фреймворка Django - готовность...",
        "work_url": "https://rabota.ua/company4083602/vacancy8591584"
    },
    "8541533": {
        "work_company_title": "Junior Python developer",
        "work_company_name": "Марин Дизайн Инжиниринг Николаев, ООО",
        "work_company_location": "Николаев",
        "work_company_salary": "",
        "work_company_description": "Research and Development department is looking for Simulation Development Engineer which will specialize in programming tools for engineering/research...",
        "work_url": "https://rabota.ua/company1100170/vacancy8541533"
    },
    "8650961": {
        "work_company_title": "Начинающий специалист по нейронным сетям",
        "work_company_name": "International Student Connection",
        "work_company_location": "Днепр",
        "work_company_salary": "6 000 — 12 000 грн",
        "work_company_description": "Наймем технического ассистента в научном статистическом проекте в основном для совместного изучения нейронных сетей с программированием на Питоне. Предпочтительно...",
        "work_url": "https://rabota.ua/company1088584/vacancy8650961"
    },
    "8421005": {
        "work_company_title": "Python Developer (SEO Team)",
        "work_company_name": "EvoPlay",
        "work_company_location": "Киев",
        "work_company_salary": "",
        "work_company_description": "Международная продуктовая IT-компания в поиске кандидата на позицию Python Developer . У нас Вы получите доступ ко всем необходимым ресурсам для работы,...",
        "work_url": "https://rabota.ua/company1590638/vacancy8421005"
    },
    "8394062": {
        "work_company_title": "Junior JavaScript or Python Chat-Bot Telegram Developer",
        "work_company_name": "Development.Exyte.top",
        "work_company_location": "Киев",
        "work_company_salary": "15 000 грн",
        "work_company_description": "Requirements: ? Software engineering background ? JavaScript(es6) or Python ? git ? A commitment and drive for quality, excellence and results and attention...",
        "work_url": "https://rabota.ua/company10642334/vacancy8394062"
    },
    "8607213": {
        "work_company_title": "Trainee Python Developer (IRC120273)",
        "work_company_name": "GlobalLogic Ukraine",
        "work_company_location": "Львов",
        "work_company_salary": "",
        "work_company_description": "GlobalLogic Ukraine is inviting a Trainee Python Developer to join its Lviv office. Project for one of the largest multinational corporations that specialize...",
        "work_url": "https://rabota.ua/company794/vacancy8607213"
    },
    "8534329": {
        "work_company_title": "Junior Data Engineer",
        "work_company_name": "MaxiTech, LLC",
        "work_company_location": "Киев",
        "work_company_salary": "",
        "work_company_description": "Maxitech is looking for an motivated, proactive, self-driven Junior Data Engineer to join the team. Maxitech is a R&D office of large international...",
        "work_url": "https://rabota.ua/company5158906/vacancy8534329"
    },
    "8620089": {
        "work_company_title": "Python Developer / Data Engineer (Middle)",
        "work_company_name": "Сингента/Syngenta",
        "work_company_location": "Киев",
        "work_company_salary": "",
        "work_company_description": "Компанія Syngenta та Cropwise Operations - запрошує до співпраці молодих та амбітних людей на вакансію Python Developer / Data Engineer Що очікуємо від...",
        "work_url": "https://rabota.ua/company778873/vacancy8620089"
    },
    "8584443": {
        "work_company_title": "Data Scientist",
        "work_company_name": "Genesis",
        "work_company_location": "Киев",
        "work_company_salary": "",
        "work_company_description": "Привіт! Ми шукаємо Data Scientist , який покращить існуючі сервіси прийняття рішень в команді маркетингової аналітики та візьме активну участь в розробці...",
        "work_url": "https://rabota.ua/company782154/vacancy8584443"
    },
    "8603709": {
        "work_company_title": "Python Developer",
        "work_company_name": "EVA - линия магазинов",
        "work_company_location": "Днепр",
        "work_company_salary": "",
        "work_company_description": "Ищем человека желательно с коммерческим опытом на Python 3, но рассматриваем также опыт некоммерческой разработки или опыт в другом ЯП, но с острым желанием...",
        "work_url": "https://rabota.ua/company511842/vacancy8603709"
    },
    "8619277": {
        "work_company_title": "Developer Python Django",
        "work_company_name": "eZdorovya",
        "work_company_location": "Киев",
        "work_company_salary": "",
        "work_company_description": "eZdorovya —ІТ підприємство, що відповідає за розробку і впровадження електронної системи охорони здоров’я eHealth - драйверу медичної реформи. Електронна...",
        "work_url": "https://rabota.ua/company8837753/vacancy8619277"
    },
    "8163790": {
        "work_company_title": "Machine Learning Engineer",
        "work_company_name": "SOLVVE",
        "work_company_location": "Днепр",
        "work_company_salary": "",
        "work_company_description": "We are looking for a Junior/Middle Machine Learning engineer to join our Dnipro team (or remote) on a full-time basis. About the project Computer Vision...",
        "work_url": "https://rabota.ua/company1693736/vacancy8163790"
    },
    "8618171": {
        "work_company_title": "Python-разработчик",
        "work_company_name": "Шаг, Компьютерная Академия",
        "work_company_location": "Запорожье",
        "work_company_salary": "",
        "work_company_description": "Компьютерная Академия ШАГ — крупнейшее международное учебное заведение, специализирующееся на компьютерном образовании. Работаем с 1999 года. Открыто 105...",
        "work_url": "https://rabota.ua/company3609897/vacancy8618171"
    },
    "8616473": {
        "work_company_title": "Junior Data Analyst",
        "work_company_name": "ММД СМАРТ УКРАЇНА",
        "work_company_location": "Киев",
        "work_company_salary": "",
        "work_company_description": "Привет! Мы ищем Junior Data Analyst - того, кто горит аналитикой, не боится больших объемов данных, хочет учиться и получить классный опыт. Что ты будешь...",
        "work_url": "https://rabota.ua/company2264174/vacancy8616473"
    },
    "8630329": {
        "work_company_title": "Молодший data scientist",
        "work_company_name": "Медіа Група Україна",
        "work_company_location": "Киев",
        "work_company_salary": "",
        "work_company_description": "«Медіа Партнерство Баінг» — медіа-агенція повного циклу, що входить до холдингу «Медіа Група Україна» — оголошує конкурс на позицію data scientist Мета...",
        "work_url": "https://rabota.ua/company1491690/vacancy8630329"
    },
    "8626350": {
        "work_company_title": "Software developer",
        "work_company_name": "WebCase",
        "work_company_location": "Бердянск",
        "work_company_salary": "",
        "work_company_description": "« WEBCASE » — это IT компания с более 50 сотрудниками в штате, офисами в Бердянске и Днепре. Предоставляем услуги на территории: Украины, Соединенных Штатов...",
        "work_url": "https://rabota.ua/company3001674/vacancy8626350"
    },
    "8170069": {
        "work_company_title": "Junior Python Developer",
        "work_company_name": "Synthetic",
        "work_company_location": "Луцк",
        "work_company_salary": "15 000 грн",
        "work_company_description": "Synthetic - це сучасна продуктова ІТ компанія, що займається розробкою масштабних проектів. Ми в пошуку талановитих розробників, які зможуть розширити...",
        "work_url": "https://rabota.ua/company6913096/vacancy8170069"
    },
    "8635343": {
        "work_company_title": "Python/Django Intern",
        "work_company_name": "SteelKiwi Inc.",
        "work_company_location": "Одесса",
        "work_company_salary": "",
        "work_company_description": "What is the necessary skill set? basic knowledge of Python and Django good knowledge of OOP good knowledge of relational databases experience with VCS...",
        "work_url": "https://rabota.ua/company1252717/vacancy8635343"
    },
    "8632481": {
        "work_company_title": "Junior Python Software Engineer",
        "work_company_name": "INOXOFT",
        "work_company_location": "Львов",
        "work_company_salary": "",
        "work_company_description": "InoXoft is an IT company that provides web, mobile development outsources services as well as Automated Testing, UI/UX design, and Discovery Phase. We...",
        "work_url": "https://rabota.ua/company4751717/vacancy8632481"
    },
    "8184843": {
        "work_company_title": "Викладач програмування в навчальний ІТ-центр (Дніпро)",
        "work_company_name": "Level Up, Навчальний ІТ-центр",
        "work_company_location": "Днепр",
        "work_company_salary": "",
        "work_company_description": "Навчальний IT-центр «Level Up» (Дніпро) понад вісім років успішно працює в сфері IT-освіти. Зараз у нас 27 програм навчання, 32 чудових викладача і 4700...",
        "work_url": "https://rabota.ua/company1298949/vacancy8184843"
    },
    "8615914": {
        "work_company_title": "Strong Junior/Middle Infrastructure developer",
        "work_company_name": "Star Of Service",
        "work_company_location": "Киев",
        "work_company_salary": "",
        "work_company_description": "StarOfService is a worldwide Marketplace for Services. Our product is adopted in 140+ countries worldwide. Our ambition is to build the largest marketplace...",
        "work_url": "https://rabota.ua/company3803312/vacancy8615914"
    },
    "8612345": {
        "work_company_title": "Junior back-end developer",
        "work_company_name": "Salad",
        "work_company_location": "Одесса",
        "work_company_salary": "",
        "work_company_description": "© 2021 ООО « Є САЛАТ» Мы готовы предложить интересные условия и полный комфорт для вашей любимой работы - адекватный менеджмент, сильные специалисты, возможность...",
        "work_url": "https://rabota.ua/company10473640/vacancy8612345"
    },
    "8593789": {
        "work_company_title": "Програміст Python",
        "work_company_name": "ELSY, ООО",
        "work_company_location": "Львов",
        "work_company_salary": "",
        "work_company_description": "Проект по створенню системи управління доступом в приміщення (база даних, відео...). На першому етапі проект має бути локальним, на другому- має бути розміщений...",
        "work_url": "https://rabota.ua/company3605187/vacancy8593789"
    },
    "8641279": {
        "work_company_title": "Trainee QA Automation (Python) (IRC122025)",
        "work_company_name": "GlobalLogic Ukraine",
        "work_company_location": "Киев",
        "work_company_salary": "",
        "work_company_description": "GlobalLogic Ukraine is inviting a Trainee QA Automation (Python) to join its Kyiv office. The Client is UK company, providing to market business intelligence...",
        "work_url": "https://rabota.ua/company794/vacancy8641279"
    },
    "8611597": {
        "work_company_title": "Преподаватель python",
        "work_company_name": "Шаг, Компьютерная Академия",
        "work_company_location": "Киев",
        "work_company_salary": "",
        "work_company_description": "Компьютерная академия ШАГ с 1999 года готови т программистов, дизайнеров и системных инженеров , которых нельзя заменить искусственным интеллектом. Для...",
        "work_url": "https://rabota.ua/company2972039/vacancy8611597"
    },
    "8200319": {
        "work_company_title": "Преподаватель в школу программирования CODDY",
        "work_company_name": "CODDY",
        "work_company_location": "Измаил",
        "work_company_salary": "",
        "work_company_description": "В международную школу программирования CODDY требуются энергичные, коммуникабельные, ответственные сотрудники. Требования:- Знание языков программирования:...",
        "work_url": "https://rabota.ua/company8251646/vacancy8200319"
    },
    "8351567": {
        "work_company_title": "Smart Junior Developer (PHP, JS, Java, C/C++, C#, Ruby, Python)",
        "work_company_name": "LuckyWare Pro",
        "work_company_location": "Харьков",
        "work_company_salary": "",
        "work_company_description": "A goal-driven, responsible developer who is ready to work with any programming language (PHP, JS, Java, C/C++, C#, Ruby, Python etc.) is urgently required....",
        "work_url": "https://rabota.ua/company754053/vacancy8351567"
    },
    "8440981": {
        "work_company_title": "Junior IT Recruiter (full-time, remote)",
        "work_company_name": "GoIT",
        "work_company_location": "Киев",
        "work_company_salary": "",
        "work_company_description": "Привет! Мы - команда GoIT - быстрорастущая EdTech-компания, которая на протяжении 6 лет совершенствует IT-образование в Украине, а теперь и за ее пределами....",
        "work_url": "https://rabota.ua/company2652542/vacancy8440981"
    },
    "8517003": {
        "work_company_title": "Junior Scientific Algorithm Engineer",
        "work_company_name": "Huawei Ukraine LLC / Хуавей Україна, ТОВ",
        "work_company_location": "Киев",
        "work_company_salary": "",
        "work_company_description": "Internship for Junior Scientific Algorithm Engineer. Main directions: AI/ML/CV/NLP/NLU, cloud, databases, data compression, autonomous driving etc. Main...",
        "work_url": "https://rabota.ua/company853/vacancy8517003"
    },
    "8629836": {
        "work_company_title": "Data scientist",
        "work_company_name": "ARX, Страховая компания",
        "work_company_location": "Киев",
        "work_company_salary": "",
        "work_company_description": "Страхова компанія ARX - лідер страхового ринку України і представник канадської міжнародної страхової групи Fairfax Financial Holdings. № 1 на ринку КАСКО...",
        "work_url": "https://rabota.ua/company461305/vacancy8629836"
    },
    "8208433": {
        "work_company_title": "Преподаватель IT",
        "work_company_name": "БАЙТ УКРАИНА, ТОВ",
        "work_company_location": "Мариуполь",
        "work_company_salary": "6 000 — 20 000 грн",
        "work_company_description": "Требования: - Язык программирования Python на уровне Junior; - Понимание принципов работы сетей; - Знание устройства ПК; - Photoshop/Premiere Pro/Web дизайн...",
        "work_url": "https://rabota.ua/company8582360/vacancy8208433"
    },
    "7976774": {
        "work_company_title": "Преподаватель онлайн-программирования по Scratch, Python или Roblox",
        "work_company_name": "IT FUTURE, Online School",
        "work_company_location": "Киев",
        "work_company_salary": "8 000 — 14 000 грн",
        "work_company_description": "В связи с увеличением количества учеников, ищем дополнительных преподавателей программирования в онлайн IT-Школу IT FUTURE Online (www.itfuture.online)....",
        "work_url": "https://rabota.ua/company4063832/vacancy7976774"
    },
    "8504824": {
        "work_company_title": "Python\\Django Developer",
        "work_company_name": "Eco teeth",
        "work_company_location": "Харьков",
        "work_company_salary": "20 000 грн",
        "work_company_description": "Проект VictoryWow в спешном порядке ищет Django/Python Разработчика На доработки сайта VictoryWow срочно ищется программист, который: 1. Может быстро разобраться...",
        "work_url": "https://rabota.ua/company10109755/vacancy8504824"
    },
    "8600994": {
        "work_company_title": "Преподаватель вводных уроков в онлайн-школу с польским языком (без опыта)",
        "work_company_name": "Mirey Robotics",
        "work_company_location": "Львов",
        "work_company_salary": "5 000 — 20 000 грн",
        "work_company_description": "Онлайн-школа программирования для детей RoboSchool (robo-school.org) ищет людей, проводящих вводные уроки (ВУ) по программированию для детей. Опыт не требуется,...",
        "work_url": "https://rabota.ua/company10570081/vacancy8600994"
    },
    "8600990": {
        "work_company_title": "Cтажёр-разработчик автоматизированных тестов",
        "work_company_name": "a1qa",
        "work_company_location": "Ивано-Франковск",
        "work_company_salary": "",
        "work_company_description": "Мы ищем кандидатов без опыта работы в автоматизации, но с базовыми знаниями ООП и желанием развиваться в сфере. Мы бесплатно обучаем в нашем учебном центре...",
        "work_url": "https://rabota.ua/company11071347/vacancy8600990"
    },
    "8599264": {
        "work_company_title": "Cтажёр-разработчик автоматизированных тестов",
        "work_company_name": "a1qa",
        "work_company_location": "Винница",
        "work_company_salary": "",
        "work_company_description": "Мы ищем кандидатов без опыта работы в автоматизации, но с базовыми знаниями ООП и желанием развиваться в сфере. Мы бесплатно обучаем в нашем учебном центре...",
        "work_url": "https://rabota.ua/company11071347/vacancy8599264"
    },
    "8599243": {
        "work_company_title": "Cтажёр-разработчик автоматизированных тестов",
        "work_company_name": "a1qa",
        "work_company_location": "Николаев",
        "work_company_salary": "",
        "work_company_description": "Мы ищем кандидатов без опыта работы в автоматизации, но с базовыми знаниями ООП и желанием развиваться в сфере. Мы бесплатно обучаем в нашем учебном центре...",
        "work_url": "https://rabota.ua/company11071347/vacancy8599243"
    },
    "8599183": {
        "work_company_title": "Cтажёр-разработчик автоматизированных тестов",
        "work_company_name": "a1qa",
        "work_company_location": "Одесса",
        "work_company_salary": "",
        "work_company_description": "Мы ищем кандидатов без опыта работы в автоматизации, но с базовыми знаниями ООП и желанием развиваться в сфере. Мы бесплатно обучаем в нашем учебном центре...",
        "work_url": "https://rabota.ua/company11071347/vacancy8599183"
    },
    "8662073": {
        "work_company_title": "Junior/Middle Python Developer",
        "work_company_name": "Оникс-Системз, ООО / Оникс, интернет-компания",
        "work_company_location": "Кропивницкий",
        "work_company_salary": "8 000 — 40 000 грн",
        "work_company_description": "Junior Базові знання Django; Базові знання Django Rest Framework; Базові знання Flask (не потрібні, але будуть перевагою); Docker; MySQL \\ PostgreSQL....",
        "work_url": "https://rabota.ua/company808103/vacancy8662073"
    },
    "8662068": {
        "work_company_title": "Junior Machine Learning Engineer",
        "work_company_name": "Оникс-Системз, ООО / Оникс, интернет-компания",
        "work_company_location": "Кропивницкий",
        "work_company_salary": "8 000 — 27 000 грн",
        "work_company_description": "Більше 1 року досвіду з Machine Learning, Statistical Models та Natural Language Processing. Необхідні навички: Python; Комерційний досвід роботи з фреймворком...",
        "work_url": "https://rabota.ua/company808103/vacancy8662068"
    },
    "8661759": {
        "work_company_title": "Trainee Python Engineer (IRC119817)",
        "work_company_name": "GlobalLogic Ukraine",
        "work_company_location": "Львов",
        "work_company_salary": "",
        "work_company_description": "GlobalLogic Ukraine is inviting a Trainee Python Engineer to join its Lviv office. The Client is one of the world’s leading industrial vendors is looking...",
        "work_url": "https://rabota.ua/company794/vacancy8661759"
    },
    "8661651": {
        "work_company_title": "Junior DevOps developer",
        "work_company_name": "Fulcrum Software",
        "work_company_location": "Харьков",
        "work_company_salary": "",
        "work_company_description": "Project: Development of software for a cardiovascular ultrasound scanner (heart). The team handles telemetry data processing: database with logs (AWS Cloud...",
        "work_url": "https://rabota.ua/company797694/vacancy8661651"
    }
}